CPU.vcd
$date
	Fri Dec 11 16:17:54 2020
$end
$version
	Icarus Verilog
$end
$timescale
	1s
$end
$scope module TestBench $end
$var reg 1 ! Clk $end
$var reg 1 " Reset $end
$var reg 1 # Start $end
$var integer 32 $ counter [31:0] $end
$var integer 32 % flush [31:0] $end
$var integer 32 & i [31:0] $end
$var integer 32 ' outfile [31:0] $end
$var integer 32 ( stall [31:0] $end
$scope module CPU $end
$var wire 1 ! clk_i $end
$var wire 1 " rst_i $end
$var wire 1 # start_i $end
$scope module ALU $end
$var wire 32 ) data2_i [31:0] $end
$var wire 32 * data1_i [31:0] $end
$var wire 3 + ALUCtrl_i [2:0] $end
$var reg 32 , data_o [31:0] $end
$upscope $end
$scope module ALU_Control $end
$var wire 10 - funct_i [9:0] $end
$var wire 1 . funct3 $end
$var wire 2 / ALUOp_i [1:0] $end
$var reg 3 0 ALUCtrl_o [2:0] $end
$upscope $end
$scope module Add_PC $end
$var wire 32 1 data2_i [31:0] $end
$var wire 32 2 data_o [31:0] $end
$var wire 32 3 data1_i [31:0] $end
$upscope $end
$scope module Add_PC_Branch $end
$var wire 32 4 data1_i [31:0] $end
$var wire 32 5 data_o [31:0] $end
$var wire 32 6 data2_i [31:0] $end
$upscope $end
$scope module Control $end
$var wire 7 7 Op_i [6:0] $end
$var wire 1 8 NoOp_i $end
$var reg 2 9 ALUOp_o [1:0] $end
$var reg 1 : ALUSrc_o $end
$var reg 1 ; Branch_o $end
$var reg 1 < MemRead_o $end
$var reg 1 = MemWrite_o $end
$var reg 1 > MemtoReg_o $end
$var reg 1 ? RegWrite_o $end
$upscope $end
$scope module Data_Memory $end
$var wire 1 ! clk_i $end
$var wire 32 @ data_o [31:0] $end
$var wire 32 A data_i [31:0] $end
$var wire 32 B addr_i [31:0] $end
$var wire 1 C MemWrite_i $end
$var wire 1 D MemRead_i $end
$upscope $end
$scope module EXMEM $end
$var wire 32 E ALUResult_i [31:0] $end
$var wire 1 ! clk_i $end
$var wire 1 F RegWrite_i $end
$var wire 5 G RDaddr_i [4:0] $end
$var wire 1 H MemtoReg_i $end
$var wire 1 I MemWrite_i $end
$var wire 1 J MemRead_i $end
$var wire 32 K MUX_B_i [31:0] $end
$var reg 32 L ALUResult_o [31:0] $end
$var reg 32 M MUX_B_o [31:0] $end
$var reg 1 D MemRead_o $end
$var reg 1 C MemWrite_o $end
$var reg 1 N MemtoReg_o $end
$var reg 5 O RDaddr_o [4:0] $end
$var reg 1 P RegWrite_o $end
$upscope $end
$scope module Forward_Unit $end
$var wire 5 Q MemRd_i [4:0] $end
$var wire 1 P MemRegWrite_i $end
$var wire 1 R WBRegWrite_i $end
$var wire 5 S WBRd_i [4:0] $end
$var wire 5 T EXRs2_i [4:0] $end
$var wire 5 U EXRs1_i [4:0] $end
$var reg 2 V ForwardA_o [1:0] $end
$var reg 2 W ForwardB_o [1:0] $end
$upscope $end
$scope module Hazard_Detection $end
$var wire 5 X data3_i [4:0] $end
$var wire 5 Y data2_i [4:0] $end
$var wire 5 Z data1_i [4:0] $end
$var wire 1 J MemRead_i $end
$var reg 1 8 NoOp_o $end
$var reg 1 [ PCWrite_o $end
$var reg 1 \ Stall_o $end
$upscope $end
$scope module IDEX $end
$var wire 2 ] ALUOp_i [1:0] $end
$var wire 1 : ALUSrc_i $end
$var wire 1 < MemRead_i $end
$var wire 1 = MemWrite_i $end
$var wire 1 > MemtoReg_i $end
$var wire 1 ? RegWrite_i $end
$var wire 1 ! clk_i $end
$var wire 10 ^ funct_i [9:0] $end
$var wire 32 _ imm_i [31:0] $end
$var wire 32 ` data2_i [31:0] $end
$var wire 32 a data1_i [31:0] $end
$var wire 5 b RS2addr_i [4:0] $end
$var wire 5 c RS1addr_i [4:0] $end
$var wire 5 d RDaddr_i [4:0] $end
$var reg 2 e ALUOp_o [1:0] $end
$var reg 1 f ALUSrc_o $end
$var reg 1 J MemRead_o $end
$var reg 1 I MemWrite_o $end
$var reg 1 H MemtoReg_o $end
$var reg 5 g RDaddr_o [4:0] $end
$var reg 5 h RS1addr_o [4:0] $end
$var reg 5 i RS2addr_o [4:0] $end
$var reg 1 F RegWrite_o $end
$var reg 32 j data1_o [31:0] $end
$var reg 32 k data2_o [31:0] $end
$var reg 10 l funct_o [9:0] $end
$var reg 32 m imm_o [31:0] $end
$upscope $end
$scope module IFID $end
$var wire 1 \ Stall_i $end
$var wire 1 ! clk_i $end
$var wire 32 n instr_i [31:0] $end
$var wire 32 o PC_i [31:0] $end
$var wire 1 p Flush_i $end
$var reg 32 q PC_o [31:0] $end
$var reg 32 r instr_o [31:0] $end
$upscope $end
$scope module If_Branch $end
$var wire 1 ; Branch_i $end
$var wire 32 s data2_i [31:0] $end
$var wire 32 t data1_i [31:0] $end
$var reg 1 u compare $end
$var reg 1 p data_o $end
$upscope $end
$scope module Imm_Gen $end
$var wire 32 v data_i [31:0] $end
$var wire 7 w opcode [6:0] $end
$var wire 12 x imme [11:0] $end
$var wire 32 y data_o [31:0] $end
$upscope $end
$scope module Instruction_Memory $end
$var wire 32 z instr_o [31:0] $end
$var wire 32 { addr_i [31:0] $end
$upscope $end
$scope module MEMWB $end
$var wire 32 | ALUResult_i [31:0] $end
$var wire 1 N MemtoReg_i $end
$var wire 5 } RDaddr_i [4:0] $end
$var wire 32 ~ ReadData_i [31:0] $end
$var wire 1 P RegWrite_i $end
$var wire 1 ! clk_i $end
$var reg 32 !" ALUResult_o [31:0] $end
$var reg 1 "" MemtoReg_o $end
$var reg 5 #" RDaddr_o [4:0] $end
$var reg 32 $" ReadData_o [31:0] $end
$var reg 1 R RegWrite_o $end
$upscope $end
$scope module MUX_A $end
$var wire 32 %" data0_i [31:0] $end
$var wire 32 &" data2_i [31:0] $end
$var wire 2 '" forward_i [1:0] $end
$var wire 32 (" data1_i [31:0] $end
$var reg 32 )" data_o [31:0] $end
$upscope $end
$scope module MUX_ALUSrc $end
$var wire 32 *" data2_i [31:0] $end
$var wire 1 f select_i $end
$var wire 32 +" data1_i [31:0] $end
$var reg 32 ," data_o [31:0] $end
$upscope $end
$scope module MUX_B $end
$var wire 32 -" data0_i [31:0] $end
$var wire 32 ." data2_i [31:0] $end
$var wire 2 /" forward_i [1:0] $end
$var wire 32 0" data1_i [31:0] $end
$var reg 32 1" data_o [31:0] $end
$upscope $end
$scope module MUX_Mem2Reg $end
$var wire 32 2" data1_i [31:0] $end
$var wire 32 3" data2_i [31:0] $end
$var wire 1 "" select_i $end
$var reg 32 4" data_o [31:0] $end
$upscope $end
$scope module MUX_PCSource $end
$var wire 32 5" data1_i [31:0] $end
$var wire 32 6" data2_i [31:0] $end
$var wire 1 p select_i $end
$var reg 32 7" data_o [31:0] $end
$upscope $end
$scope module PC $end
$var wire 1 [ PCWrite_i $end
$var wire 1 ! clk_i $end
$var wire 32 8" pc_i [31:0] $end
$var wire 1 " rst_i $end
$var wire 1 # start_i $end
$var reg 32 9" pc_o [31:0] $end
$upscope $end
$scope module Registers $end
$var wire 5 :" RDaddr_i [4:0] $end
$var wire 32 ;" RDdata_i [31:0] $end
$var wire 5 <" RS1addr_i [4:0] $end
$var wire 5 =" RS2addr_i [4:0] $end
$var wire 1 R RegWrite_i $end
$var wire 1 ! clk_i $end
$var wire 32 >" RS2data_o [31:0] $end
$var wire 32 ?" RS1data_o [31:0] $end
$upscope $end
$upscope $end
$upscope $end
$enddefinitions $end
#0
$dumpvars
bx ?"
bx >"
bx ="
bx <"
b0 ;"
b0 :"
b0 9"
b100 8"
b100 7"
bx 6"
b100 5"
b0 4"
b0 3"
b0 2"
bx 1"
b0 0"
b0 /"
bx ."
bx -"
bx ,"
bx +"
bx *"
bx )"
b0 ("
b0 '"
bx &"
bx %"
b0 $"
b0 #"
0""
b0 !"
b0 ~
b0 }
bx |
b0 {
b11000000000010100010011 z
bx y
bx x
bx w
bx v
0u
bx t
bx s
bx r
bx q
0p
b0 o
b11000000000010100010011 n
bx m
b0 l
bx k
bx j
b0 i
b0 h
b0 g
0f
bx e
bx d
bx c
bx b
bx a
bx `
bx _
bx ^
bx ]
0\
1[
bx Z
bx Y
b0 X
b0 W
b0 V
b0 U
b0 T
b0 S
0R
b0 Q
0P
b0 O
0N
bx M
bx L
bx K
0J
0I
0H
b0 G
0F
bx E
0D
0C
bx B
bx A
b0 @
0?
0>
0=
0<
0;
0:
bx 9
08
bx 7
bx 6
bx 5
bx0 4
b0 3
b100 2
b100 1
b101 0
bx /
0.
b0 -
bx ,
b101 +
bx *
bx )
b0 (
b11 '
b100000 &
b0 %
b0 $
0#
1"
1!
$end
#12
1#
0"
#25
0!
#50
1u
b1100 5
b1100 6"
b1100 4
x.
1?
1:
b0 9
b0 ]
b0 a
b0 t
b0 ?"
b0 `
b0 s
b0 >"
b110 _
b110 y
b110 x
bx ("
bx 0"
bx 4"
bx ;"
b10011 7
b0 <"
b110 ="
b0 Z
b110 Y
b0 ^
b0 c
b110 b
b1010 d
b10011 w
b100000000010110010011 n
b100000000010110010011 z
b1000 7"
b1000 8"
bx !"
bx 2"
bx G
bx X
bx g
bx T
bx i
bx U
bx h
bx -
bx l
b11000000000010100010011 r
b11000000000010100010011 v
b0 6
b0 q
b1000 2
b1000 5"
b100 3
b100 o
b100 {
b100 9"
b1 $
1!
#75
0!
#100
b10 4
b1 _
b1 y
b1 x
0.
b110 ,
b110 E
b1 ="
b1 Y
b1 b
b1011 d
b0 K
b0 +"
b0 1"
b0 *
b0 )"
b110 )
b110 ,"
b101 +
b101 0
b100000000010010010011 n
b100000000010010010011 z
b1100 7"
b1100 8"
b100000000010110010011 r
b100000000010110010011 v
b110 5
b110 6"
b100 6
b100 q
b1010 G
b1010 X
b1010 g
b110 T
b110 i
b0 U
b0 h
b0 -
b0 l
b110 m
b110 *"
b0 k
b0 -"
b0 j
b0 %"
1F
1f
b0 /
b0 e
bx O
bx Q
bx }
b1100 2
b1100 5"
b1000 3
b1000 o
b1000 {
b1000 9"
b10 $
1!
#125
0!
#150
b1 ,
b1 E
b1 )
b1 ,"
b1001 d
b10101101001000010010110011 n
b10101101001000010010110011 z
b10000 7"
b10000 8"
bx S
bx #"
bx :"
b1010 O
b1010 Q
b1010 }
b0 A
b0 M
b110 B
b110 L
b110 |
b110 &"
b110 ."
1P
b1011 G
b1011 X
b1011 g
b1 T
b1 i
b1 m
b1 *"
b100000000010010010011 r
b100000000010010010011 v
b1010 5
b1010 6"
b1000 6
b1000 q
b10000 2
b10000 5"
b1100 3
b1100 o
b1100 {
b1100 9"
b11 $
1!
#175
0!
#200
b100000101000 4
0:
b10 9
b10 ]
b10000010100 _
b10000010100 y
b10000010100 x
b110011 7
b1001 <"
b1011 ="
b1001 Z
b1011 Y
b1000 ^
b1001 c
b1011 b
b110011 w
b110 ("
b110 0"
b110 4"
b110 ;"
b101011000010110010011 n
b101011000010110010011 z
b10100 7"
b10100 8"
b10101101001000010010110011 r
b10101101001000010010110011 v
b100000110100 5
b100000110100 6"
b1100 6
b1100 q
b1001 G
b1001 X
b1001 g
b1011 O
b1011 Q
b1011 }
b1 B
b1 L
b1 |
b1 &"
b1 ."
b1010 S
b1010 #"
b1010 :"
b110 !"
b110 2"
1R
b10100 2
b10100 5"
b10000 3
b10000 o
b10000 {
b10000 9"
b100 $
1!
#225
0!
#250
0u
b1 a
b1 t
b1 ?"
b10 4
b1 K
b1 +"
b1 1"
b1 *
b1 )"
b1 ,
b1 E
1:
b0 9
b0 ]
b1 _
b1 y
b1 x
b1 ("
b1 0"
b1 4"
b1 ;"
b1 W
b1 /"
b10 V
b10 '"
b1 )
b1 ,"
b111 +
b111 0
b10011 7
b1011 <"
b1 ="
b1011 Z
b1 Y
b0 ^
b1011 c
b1 b
b1011 d
b10011 w
b1011000111000010011 n
b1011000111000010011 z
b11000 7"
b11000 8"
b1011 S
b1011 #"
b1011 :"
b1 !"
b1 2"
b1001 O
b1001 Q
b1001 }
b1011 T
b1011 i
b1001 U
b1001 h
b1000 -
b1000 l
b10000010100 m
b10000010100 *"
0f
b10 /
b10 e
b101011000010110010011 r
b101011000010110010011 v
b10010 5
b10010 6"
b10000 6
b10000 q
b11000 2
b11000 5"
b10100 3
b10100 o
b10100 {
b10100 9"
b101 $
1!
#275
0!
#300
b0 4
b0 _
b0 y
b0 x
b10 ,
b10 E
b0 K
b0 +"
b0 1"
b0 ="
b0 Y
b0 b
b11100 d
b101 +
b101 0
b0 W
b0 /"
b0 V
b0 '"
b11111111111101011000111010010011 n
b11111111111101011000111010010011 z
b11100 7"
b11100 8"
b1011000111000010011 r
b1011000111000010011 v
b10100 5
b10100 6"
b10100 6
b10100 q
b1011 G
b1011 X
b1011 g
b1 T
b1 i
b1011 U
b1011 h
b0 -
b0 l
b1 m
b1 *"
b1 j
b1 %"
1f
b0 /
b0 e
b1 A
b1 M
b1001 S
b1001 #"
b1001 :"
b11100 2
b11100 5"
b11000 3
b11000 o
b11000 {
b11000 9"
b110 $
1!
#325
0!
#350
b11111111111111111111111111111110 4
b11111111111111111111111111111111 _
b11111111111111111111111111111111 y
b111111111111 x
b10 *
b10 )"
b10 V
b10 '"
b0 )
b0 ,"
b11111 ="
b11111 Y
b1111111000 ^
b11111 b
b11101 d
b11111111111001011000111100010011 n
b11111111111001011000111100010011 z
b100000 7"
b100000 8"
b1011 O
b1011 Q
b1011 }
b0 A
b0 M
b10 B
b10 L
b10 |
b10 &"
b10 ."
b11100 G
b11100 X
b11100 g
b0 T
b0 i
b0 m
b0 *"
b11111111111101011000111010010011 r
b11111111111101011000111010010011 v
b10110 5
b10110 6"
b11000 6
b11000 q
b100000 2
b100000 5"
b11100 3
b11100 o
b11100 {
b11100 9"
b111 $
1!
#375
0!
#400
b11111111111111111111111111111100 4
b11111111111111111111111111111110 _
b11111111111111111111111111111110 y
b111111111110 x
b1 ,
b1 E
b10 a
b10 t
b10 ?"
b11110 ="
b11110 Y
b11110 b
b11110 d
b11111111111111111111111111111111 )
b11111111111111111111111111111111 ,"
b1 V
b1 '"
b10 ("
b10 0"
b10 4"
b10 ;"
b101101010000010001100011 n
b101101010000010001100011 z
b100100 7"
b100100 8"
b11111111111001011000111100010011 r
b11111111111001011000111100010011 v
b11000 5
b11000 6"
b11100 6
b11100 q
b11101 G
b11101 X
b11101 g
b11111 T
b11111 i
b1111111000 -
b1111111000 l
b11111111111111111111111111111111 m
b11111111111111111111111111111111 *"
b11100 O
b11100 Q
b11100 }
b1011 S
b1011 #"
b1011 :"
b10 !"
b10 2"
b100100 2
b100100 5"
b100000 3
b100000 o
b100000 {
b100000 9"
b1000 $
1!
#425
0!
#450
b1000 4
b110 a
b110 t
b110 ?"
b0 ,
b0 E
1;
0?
b1 9
b1 ]
b10 `
b10 s
b10 >"
b100 _
b100 y
b100 x
b0 V
b0 '"
b11111111111111111111111111111110 )
b11111111111111111111111111111110 ,"
b1100011 7
b1010 <"
b1011 ="
b1010 Z
b1011 Y
b0 ^
b1010 c
b1011 b
b1000 d
b1100011 w
b11111110000000000000010011100011 n
b11111110000000000000010011100011 z
b101000 7"
b101000 8"
b11100 S
b11100 #"
b11100 :"
b11101 O
b11101 Q
b11101 }
b1 B
b1 L
b1 |
b1 &"
b1 ."
b11110 G
b11110 X
b11110 g
b11110 T
b11110 i
b11111111111111111111111111111110 m
b11111111111111111111111111111110 *"
b10 j
b10 %"
b101101010000010001100011 r
b101101010000010001100011 v
b101000 5
b101000 6"
b100000 6
b100000 q
b101000 2
b101000 5"
b100100 3
b100100 o
b100100 {
b100100 9"
b1001 $
1!
#475
0!
#500
1p
1u
b11111111111111111111111111101000 4
b11111111111111111111111111110100 _
b11111111111111111111111111110100 y
b111111110100 x
b0 a
b0 t
b0 ?"
b0 `
b0 s
b0 >"
b10 ,
b10 E
b0 <"
b0 ="
b0 Z
b0 Y
b1111111000 ^
b0 c
b0 b
b1001 d
b100 )
b100 ,"
b110 +
b110 0
b110 *
b110 )"
b10 K
b10 +"
b10 1"
b1 ("
b1 0"
b1 4"
b1 ;"
b100100000010001000100011 n
b100100000010001000100011 z
b1100 7"
b1100 8"
b11111110000000000000010011100011 r
b11111110000000000000010011100011 v
b1100 5
b1100 6"
b100100 6
b100100 q
b1000 G
b1000 X
b1000 g
b1011 T
b1011 i
b1010 U
b1010 h
b0 -
b0 l
b100 m
b100 *"
b10 k
b10 -"
b110 j
b110 %"
0F
b1 /
b1 e
b11110 O
b11110 Q
b11110 }
b0 B
b0 L
b0 |
b0 &"
b0 ."
b11101 S
b11101 #"
b11101 :"
b1 !"
b1 2"
b101100 2
b101100 5"
b101000 3
b101000 o
b101000 {
b101000 9"
b1010 $
1!
#525
0!
#550
0p
b0 4
b0 _
b0 y
b0 x
b1100 ,
b1100 E
0;
0:
b0 ("
b0 0"
b0 4"
b0 ;"
b11111111111111111111111111110100 )
b11111111111111111111111111110100 ,"
b0 K
b0 +"
b0 1"
b0 *
b0 )"
b0 7
b0 ^
b0 d
b0 w
b10101101001000010010110011 n
b10101101001000010010110011 z
b10000 7"
b10000 8"
b11110 S
b11110 #"
b11110 :"
b0 !"
b0 2"
b1000 O
b1000 Q
b1000 }
b10 A
b10 M
b10 B
b10 L
b10 |
b10 &"
b10 ."
0P
b1001 G
b1001 X
b1001 g
b0 T
b0 i
b0 U
b0 h
b1111111000 -
b1111111000 l
b11111111111111111111111111110100 m
b11111111111111111111111111110100 *"
b0 k
b0 -"
b0 j
b0 %"
b0 r
b0 v
b101000 5
b101000 6"
b101000 6
b101000 q
b10000 2
b10000 5"
b1100 3
b1100 o
b1100 {
b1100 9"
b1011 $
b1 %
1!
#575
0!
#600
0u
b100000101000 4
b10000010100 _
b10000010100 y
b10000010100 x
1?
b10 9
b10 ]
b1 a
b1 t
b1 ?"
b10 `
b10 s
b10 >"
b0 ,
b0 E
b110011 7
b1001 <"
b1011 ="
b1001 Z
b1011 Y
b1000 ^
b1001 c
b1011 b
b1001 d
b110011 w
b0 )
b0 ,"
b10 ("
b10 0"
b10 4"
b10 ;"
b101011000010110010011 n
b101011000010110010011 z
b10100 7"
b10100 8"
b10101101001000010010110011 r
b10101101001000010010110011 v
b100000110100 5
b100000110100 6"
b1100 6
b1100 q
b0 G
b0 X
b0 g
b0 -
b0 l
b0 m
b0 *"
0f
b1001 O
b1001 Q
b1001 }
b0 A
b0 M
b1100 B
b1100 L
b1100 |
b1100 &"
b1100 ."
b1000 S
b1000 #"
b1000 :"
b10 !"
b10 2"
0R
b10100 2
b10100 5"
b10000 3
b10000 o
b10000 {
b10000 9"
b1100 $
1!
#625
0!
#650
b10 4
b10 ,
b10 E
1:
b0 9
b0 ]
b10 a
b10 t
b10 ?"
b0 `
b0 s
b0 >"
b1 _
b1 y
b1 x
b1100 ("
b1100 0"
b1100 4"
b1100 ;"
b10 )
b10 ,"
b10 K
b10 +"
b10 1"
b1 *
b1 )"
b111 +
b111 0
b10011 7
b1011 <"
b1 ="
b1011 Z
b1 Y
b0 ^
b1011 c
b1 b
b1011 d
b10011 w
b1011000111000010011 n
b1011000111000010011 z
b11000 7"
b11000 8"
b1001 S
b1001 #"
b1001 :"
b1100 !"
b1100 2"
b0 O
b0 Q
b0 }
b0 B
b0 L
b0 |
b0 &"
b0 ."
b1001 G
b1001 X
b1001 g
b1011 T
b1011 i
b1001 U
b1001 h
b1000 -
b1000 l
b10000010100 m
b10000010100 *"
b10 k
b10 -"
b1 j
b1 %"
1F
b10 /
b10 e
b101011000010110010011 r
b101011000010110010011 v
b10010 5
b10010 6"
b10000 6
b10000 q
b11000 2
b11000 5"
b10100 3
b10100 o
b10100 {
b10100 9"
b1101 $
1!
#675
0!
#700
b0 4
b0 _
b0 y
b0 x
b11 ,
b11 E
b0 ="
b0 Y
b0 b
b11100 d
b1 )
b1 ,"
b101 +
b101 0
b10 *
b10 )"
b0 K
b0 +"
b0 1"
b0 ("
b0 0"
b0 4"
b0 ;"
b11111111111101011000111010010011 n
b11111111111101011000111010010011 z
b11100 7"
b11100 8"
b1011000111000010011 r
b1011000111000010011 v
b10100 5
b10100 6"
b10100 6
b10100 q
b1011 G
b1011 X
b1011 g
b1 T
b1 i
b1011 U
b1011 h
b0 -
b0 l
b1 m
b1 *"
b0 k
b0 -"
b10 j
b10 %"
1f
b0 /
b0 e
b1001 O
b1001 Q
b1001 }
b10 A
b10 M
b10 B
b10 L
b10 |
b10 &"
b10 ."
1P
b0 S
b0 #"
b0 :"
b0 !"
b0 2"
b11100 2
b11100 5"
b11000 3
b11000 o
b11000 {
b11000 9"
b1110 $
1!
#725
0!
#750
b11111111111111111111111111111110 4
b11111111111111111111111111111111 _
b11111111111111111111111111111111 y
b111111111111 x
b10 ("
b10 0"
b10 4"
b10 ;"
b11 *
b11 )"
b10 V
b10 '"
b0 )
b0 ,"
b11111 ="
b11111 Y
b1111111000 ^
b11111 b
b11101 d
b11111111111001011000111100010011 n
b11111111111001011000111100010011 z
b100000 7"
b100000 8"
b1001 S
b1001 #"
b1001 :"
b10 !"
b10 2"
1R
b1011 O
b1011 Q
b1011 }
b0 A
b0 M
b11 B
b11 L
b11 |
b11 &"
b11 ."
b11100 G
b11100 X
b11100 g
b0 T
b0 i
b0 m
b0 *"
b11111111111101011000111010010011 r
b11111111111101011000111010010011 v
b10110 5
b10110 6"
b11000 6
b11000 q
b100000 2
b100000 5"
b11100 3
b11100 o
b11100 {
b11100 9"
b1111 $
1!
#775
0!
#800
b11111111111111111111111111111100 4
b11111111111111111111111111111110 _
b11111111111111111111111111111110 y
b111111111110 x
b10 ,
b10 E
b11 a
b11 t
b11 ?"
b11110 ="
b11110 Y
b11110 b
b11110 d
b11111111111111111111111111111111 )
b11111111111111111111111111111111 ,"
b1 V
b1 '"
b11 ("
b11 0"
b11 4"
b11 ;"
b101101010000010001100011 n
b101101010000010001100011 z
b100100 7"
b100100 8"
b11111111111001011000111100010011 r
b11111111111001011000111100010011 v
b11000 5
b11000 6"
b11100 6
b11100 q
b11101 G
b11101 X
b11101 g
b11111 T
b11111 i
b1111111000 -
b1111111000 l
b11111111111111111111111111111111 m
b11111111111111111111111111111111 *"
b11100 O
b11100 Q
b11100 }
b1011 S
b1011 #"
b1011 :"
b11 !"
b11 2"
b100100 2
b100100 5"
b100000 3
b100000 o
b100000 {
b100000 9"
b10000 $
1!
#825
0!
#850
b1000 4
b110 a
b110 t
b110 ?"
b1 ,
b1 E
1;
0?
b1 9
b1 ]
b11 `
b11 s
b11 >"
b100 _
b100 y
b100 x
b0 V
b0 '"
b11111111111111111111111111111110 )
b11111111111111111111111111111110 ,"
b1100011 7
b1010 <"
b1011 ="
b1010 Z
b1011 Y
b0 ^
b1010 c
b1011 b
b1000 d
b1100011 w
b11111110000000000000010011100011 n
b11111110000000000000010011100011 z
b101000 7"
b101000 8"
b11100 S
b11100 #"
b11100 :"
b11101 O
b11101 Q
b11101 }
b10 B
b10 L
b10 |
b10 &"
b10 ."
b11110 G
b11110 X
b11110 g
b11110 T
b11110 i
b11111111111111111111111111111110 m
b11111111111111111111111111111110 *"
b11 j
b11 %"
b101101010000010001100011 r
b101101010000010001100011 v
b101000 5
b101000 6"
b100000 6
b100000 q
b101000 2
b101000 5"
b100100 3
b100100 o
b100100 {
b100100 9"
b10001 $
1!
#875
0!
#900
1p
1u
b11111111111111111111111111101000 4
b11111111111111111111111111110100 _
b11111111111111111111111111110100 y
b111111110100 x
b0 a
b0 t
b0 ?"
b0 `
b0 s
b0 >"
b10 ,
b10 E
b0 <"
b0 ="
b0 Z
b0 Y
b1111111000 ^
b0 c
b0 b
b1001 d
b100 )
b100 ,"
b110 +
b110 0
b110 *
b110 )"
b11 K
b11 +"
b11 1"
b10 ("
b10 0"
b10 4"
b10 ;"
b100100000010001000100011 n
b100100000010001000100011 z
b1100 7"
b1100 8"
b11111110000000000000010011100011 r
b11111110000000000000010011100011 v
b1100 5
b1100 6"
b100100 6
b100100 q
b1000 G
b1000 X
b1000 g
b1011 T
b1011 i
b1010 U
b1010 h
b0 -
b0 l
b100 m
b100 *"
b11 k
b11 -"
b110 j
b110 %"
0F
b1 /
b1 e
b11110 O
b11110 Q
b11110 }
b1 B
b1 L
b1 |
b1 &"
b1 ."
b11101 S
b11101 #"
b11101 :"
b10 !"
b10 2"
b101100 2
b101100 5"
b101000 3
b101000 o
b101000 {
b101000 9"
b10010 $
1!
#925
0!
#950
0p
b0 4
b0 _
b0 y
b0 x
b1100 ,
b1100 E
0;
0:
b1 ("
b1 0"
b1 4"
b1 ;"
b11111111111111111111111111110100 )
b11111111111111111111111111110100 ,"
b0 K
b0 +"
b0 1"
b0 *
b0 )"
b0 7
b0 ^
b0 d
b0 w
b10101101001000010010110011 n
b10101101001000010010110011 z
b10000 7"
b10000 8"
b11110 S
b11110 #"
b11110 :"
b1 !"
b1 2"
b1000 O
b1000 Q
b1000 }
b11 A
b11 M
b10 B
b10 L
b10 |
b10 &"
b10 ."
0P
b1001 G
b1001 X
b1001 g
b0 T
b0 i
b0 U
b0 h
b1111111000 -
b1111111000 l
b11111111111111111111111111110100 m
b11111111111111111111111111110100 *"
b0 k
b0 -"
b0 j
b0 %"
b0 r
b0 v
b101000 5
b101000 6"
b101000 6
b101000 q
b10000 2
b10000 5"
b1100 3
b1100 o
b1100 {
b1100 9"
b10011 $
b10 %
1!
#975
0!
#1000
0u
b100000101000 4
b10000010100 _
b10000010100 y
b10000010100 x
1?
b10 9
b10 ]
b10 a
b10 t
b10 ?"
b11 `
b11 s
b11 >"
b0 ,
b0 E
b110011 7
b1001 <"
b1011 ="
b1001 Z
b1011 Y
b1000 ^
b1001 c
b1011 b
b1001 d
b110011 w
b0 )
b0 ,"
b10 ("
b10 0"
b10 4"
b10 ;"
b101011000010110010011 n
b101011000010110010011 z
b10100 7"
b10100 8"
b10101101001000010010110011 r
b10101101001000010010110011 v
b100000110100 5
b100000110100 6"
b1100 6
b1100 q
b0 G
b0 X
b0 g
b0 -
b0 l
b0 m
b0 *"
0f
b1001 O
b1001 Q
b1001 }
b0 A
b0 M
b1100 B
b1100 L
b1100 |
b1100 &"
b1100 ."
b1000 S
b1000 #"
b1000 :"
b10 !"
b10 2"
0R
b10100 2
b10100 5"
b10000 3
b10000 o
b10000 {
b10000 9"
b10100 $
1!
#1025
0!
#1050
b10 4
b110 ,
b110 E
1:
b0 9
b0 ]
b11 a
b11 t
b11 ?"
b0 `
b0 s
b0 >"
b1 _
b1 y
b1 x
b1100 ("
b1100 0"
b1100 4"
b1100 ;"
b11 )
b11 ,"
b11 K
b11 +"
b11 1"
b10 *
b10 )"
b111 +
b111 0
b10011 7
b1011 <"
b1 ="
b1011 Z
b1 Y
b0 ^
b1011 c
b1 b
b1011 d
b10011 w
b1011000111000010011 n
b1011000111000010011 z
b11000 7"
b11000 8"
b1001 S
b1001 #"
b1001 :"
b1100 !"
b1100 2"
b0 O
b0 Q
b0 }
b0 B
b0 L
b0 |
b0 &"
b0 ."
b1001 G
b1001 X
b1001 g
b1011 T
b1011 i
b1001 U
b1001 h
b1000 -
b1000 l
b10000010100 m
b10000010100 *"
b11 k
b11 -"
b10 j
b10 %"
1F
b10 /
b10 e
b101011000010110010011 r
b101011000010110010011 v
b10010 5
b10010 6"
b10000 6
b10000 q
b11000 2
b11000 5"
b10100 3
b10100 o
b10100 {
b10100 9"
b10101 $
1!
#1075
0!
#1100
b0 4
b0 _
b0 y
b0 x
b100 ,
b100 E
b0 ="
b0 Y
b0 b
b11100 d
b1 )
b1 ,"
b101 +
b101 0
b11 *
b11 )"
b0 K
b0 +"
b0 1"
b0 ("
b0 0"
b0 4"
b0 ;"
b11111111111101011000111010010011 n
b11111111111101011000111010010011 z
b11100 7"
b11100 8"
b1011000111000010011 r
b1011000111000010011 v
b10100 5
b10100 6"
b10100 6
b10100 q
b1011 G
b1011 X
b1011 g
b1 T
b1 i
b1011 U
b1011 h
b0 -
b0 l
b1 m
b1 *"
b0 k
b0 -"
b11 j
b11 %"
1f
b0 /
b0 e
b1001 O
b1001 Q
b1001 }
b11 A
b11 M
b110 B
b110 L
b110 |
b110 &"
b110 ."
1P
b0 S
b0 #"
b0 :"
b0 !"
b0 2"
b11100 2
b11100 5"
b11000 3
b11000 o
b11000 {
b11000 9"
b10110 $
1!
#1125
0!
#1150
b11111111111111111111111111111110 4
b11111111111111111111111111111111 _
b11111111111111111111111111111111 y
b111111111111 x
b110 ("
b110 0"
b110 4"
b110 ;"
b100 *
b100 )"
b10 V
b10 '"
b0 )
b0 ,"
b11111 ="
b11111 Y
b1111111000 ^
b11111 b
b11101 d
b11111111111001011000111100010011 n
b11111111111001011000111100010011 z
b100000 7"
b100000 8"
b1001 S
b1001 #"
b1001 :"
b110 !"
b110 2"
1R
b1011 O
b1011 Q
b1011 }
b0 A
b0 M
b100 B
b100 L
b100 |
b100 &"
b100 ."
b11100 G
b11100 X
b11100 g
b0 T
b0 i
b0 m
b0 *"
b11111111111101011000111010010011 r
b11111111111101011000111010010011 v
b10110 5
b10110 6"
b11000 6
b11000 q
b100000 2
b100000 5"
b11100 3
b11100 o
b11100 {
b11100 9"
b10111 $
1!
#1175
0!
