CPU.vcd
$date
	Fri Dec 11 15:30:39 2020
$end
$version
	Icarus Verilog
$end
$timescale
	1s
$end
$scope module TestBench $end
$var reg 1 ! Clk $end
$var reg 1 " Reset $end
$var reg 1 # Start $end
$var integer 32 $ counter [31:0] $end
$var integer 32 % flush [31:0] $end
$var integer 32 & i [31:0] $end
$var integer 32 ' outfile [31:0] $end
$var integer 32 ( stall [31:0] $end
$scope module CPU $end
$var wire 1 ! clk_i $end
$var wire 1 " rst_i $end
$var wire 1 # start_i $end
$scope module ALU $end
$var wire 32 ) data2_i [31:0] $end
$var wire 32 * data1_i [31:0] $end
$var wire 3 + ALUCtrl_i [2:0] $end
$var reg 32 , data_o [31:0] $end
$upscope $end
$scope module ALU_Control $end
$var wire 10 - funct_i [9:0] $end
$var wire 1 . funct3 $end
$var wire 2 / ALUOp_i [1:0] $end
$var reg 3 0 ALUCtrl_o [2:0] $end
$upscope $end
$scope module Add_PC $end
$var wire 32 1 data2_i [31:0] $end
$var wire 32 2 data_o [31:0] $end
$var wire 32 3 data1_i [31:0] $end
$upscope $end
$scope module Add_PC_Branch $end
$var wire 32 4 data1_i [31:0] $end
$var wire 32 5 data_o [31:0] $end
$var wire 32 6 data2_i [31:0] $end
$upscope $end
$scope module Control $end
$var wire 7 7 Op_i [6:0] $end
$var wire 1 8 NoOp_i $end
$var reg 2 9 ALUOp_o [1:0] $end
$var reg 1 : ALUSrc_o $end
$var reg 1 ; Branch_o $end
$var reg 1 < MemRead_o $end
$var reg 1 = MemWrite_o $end
$var reg 1 > MemtoReg_o $end
$var reg 1 ? RegWrite_o $end
$upscope $end
$scope module Data_Memory $end
$var wire 1 ! clk_i $end
$var wire 32 @ data_o [31:0] $end
$var wire 32 A data_i [31:0] $end
$var wire 32 B addr_i [31:0] $end
$var wire 1 C MemWrite_i $end
$var wire 1 D MemRead_i $end
$upscope $end
$scope module EXMEM $end
$var wire 32 E ALUResult_i [31:0] $end
$var wire 1 ! clk_i $end
$var wire 1 F RegWrite_i $end
$var wire 5 G RDaddr_i [4:0] $end
$var wire 1 H MemtoReg_i $end
$var wire 1 I MemWrite_i $end
$var wire 1 J MemRead_i $end
$var wire 32 K MUX_B_i [31:0] $end
$var reg 32 L ALUResult_o [31:0] $end
$var reg 32 M MUX_B_o [31:0] $end
$var reg 1 D MemRead_o $end
$var reg 1 C MemWrite_o $end
$var reg 1 N MemtoReg_o $end
$var reg 5 O RDaddr_o [4:0] $end
$var reg 1 P RegWrite_o $end
$upscope $end
$scope module Forward_Unit $end
$var wire 5 Q MemRd_i [4:0] $end
$var wire 1 P MemRegWrite_i $end
$var wire 1 R WBRegWrite_i $end
$var wire 5 S WBRd_i [4:0] $end
$var wire 5 T EXRs2_i [4:0] $end
$var wire 5 U EXRs1_i [4:0] $end
$var reg 2 V ForwardA_o [1:0] $end
$var reg 2 W ForwardB_o [1:0] $end
$upscope $end
$scope module Hazard_Detection $end
$var wire 5 X data3_i [4:0] $end
$var wire 5 Y data2_i [4:0] $end
$var wire 5 Z data1_i [4:0] $end
$var wire 1 J MemRead_i $end
$var reg 1 8 NoOp_o $end
$var reg 1 [ PCWrite_o $end
$var reg 1 \ Stall_o $end
$upscope $end
$scope module IDEX $end
$var wire 2 ] ALUOp_i [1:0] $end
$var wire 1 : ALUSrc_i $end
$var wire 1 < MemRead_i $end
$var wire 1 = MemWrite_i $end
$var wire 1 > MemtoReg_i $end
$var wire 1 ? RegWrite_i $end
$var wire 1 ! clk_i $end
$var wire 10 ^ funct_i [9:0] $end
$var wire 32 _ imm_i [31:0] $end
$var wire 32 ` data2_i [31:0] $end
$var wire 32 a data1_i [31:0] $end
$var wire 5 b RS2addr_i [4:0] $end
$var wire 5 c RS1addr_i [4:0] $end
$var wire 5 d RDaddr_i [4:0] $end
$var reg 2 e ALUOp_o [1:0] $end
$var reg 1 f ALUSrc_o $end
$var reg 1 J MemRead_o $end
$var reg 1 I MemWrite_o $end
$var reg 1 H MemtoReg_o $end
$var reg 5 g RDaddr_o [4:0] $end
$var reg 5 h RS1addr_o [4:0] $end
$var reg 5 i RS2addr_o [4:0] $end
$var reg 1 F RegWrite_o $end
$var reg 32 j data1_o [31:0] $end
$var reg 32 k data2_o [31:0] $end
$var reg 10 l funct_o [9:0] $end
$var reg 32 m imm_o [31:0] $end
$upscope $end
$scope module IFID $end
$var wire 1 \ Stall_i $end
$var wire 1 ! clk_i $end
$var wire 32 n instr_i [31:0] $end
$var wire 32 o PC_i [31:0] $end
$var wire 1 p Flush_i $end
$var reg 32 q PC_o [31:0] $end
$var reg 32 r instr_o [31:0] $end
$upscope $end
$scope module If_Branch $end
$var wire 1 ; Branch_i $end
$var wire 32 s data2_i [31:0] $end
$var wire 32 t data1_i [31:0] $end
$var reg 1 u compare $end
$var reg 1 p data_o $end
$upscope $end
$scope module Imm_Gen $end
$var wire 32 v data_i [31:0] $end
$var wire 7 w opcode [6:0] $end
$var wire 12 x imme [11:0] $end
$var wire 32 y data_o [31:0] $end
$upscope $end
$scope module Instruction_Memory $end
$var wire 32 z instr_o [31:0] $end
$var wire 32 { addr_i [31:0] $end
$upscope $end
$scope module MEMWB $end
$var wire 32 | ALUResult_i [31:0] $end
$var wire 1 N MemtoReg_i $end
$var wire 5 } RDaddr_i [4:0] $end
$var wire 32 ~ ReadData_i [31:0] $end
$var wire 1 P RegWrite_i $end
$var wire 1 ! clk_i $end
$var reg 32 !" ALUResult_o [31:0] $end
$var reg 1 "" MemtoReg_o $end
$var reg 5 #" RDaddr_o [4:0] $end
$var reg 32 $" ReadData_o [31:0] $end
$var reg 1 R RegWrite_o $end
$upscope $end
$scope module MUX_A $end
$var wire 32 %" data0_i [31:0] $end
$var wire 32 &" data2_i [31:0] $end
$var wire 2 '" forward_i [1:0] $end
$var wire 32 (" data1_i [31:0] $end
$var reg 32 )" data_o [31:0] $end
$upscope $end
$scope module MUX_ALUSrc $end
$var wire 32 *" data2_i [31:0] $end
$var wire 1 f select_i $end
$var wire 32 +" data1_i [31:0] $end
$var reg 32 ," data_o [31:0] $end
$upscope $end
$scope module MUX_B $end
$var wire 32 -" data0_i [31:0] $end
$var wire 32 ." data2_i [31:0] $end
$var wire 2 /" forward_i [1:0] $end
$var wire 32 0" data1_i [31:0] $end
$var reg 32 1" data_o [31:0] $end
$upscope $end
$scope module MUX_Mem2Reg $end
$var wire 32 2" data1_i [31:0] $end
$var wire 32 3" data2_i [31:0] $end
$var wire 1 "" select_i $end
$var reg 32 4" data_o [31:0] $end
$upscope $end
$scope module MUX_PCSource $end
$var wire 32 5" data1_i [31:0] $end
$var wire 32 6" data2_i [31:0] $end
$var wire 1 p select_i $end
$var reg 32 7" data_o [31:0] $end
$upscope $end
$scope module PC $end
$var wire 1 [ PCWrite_i $end
$var wire 1 ! clk_i $end
$var wire 32 8" pc_i [31:0] $end
$var wire 1 " rst_i $end
$var wire 1 # start_i $end
$var reg 32 9" pc_o [31:0] $end
$upscope $end
$scope module Registers $end
$var wire 5 :" RDaddr_i [4:0] $end
$var wire 32 ;" RDdata_i [31:0] $end
$var wire 5 <" RS1addr_i [4:0] $end
$var wire 5 =" RS2addr_i [4:0] $end
$var wire 1 R RegWrite_i $end
$var wire 1 ! clk_i $end
$var wire 32 >" RS2data_o [31:0] $end
$var wire 32 ?" RS1data_o [31:0] $end
$upscope $end
$upscope $end
$upscope $end
$enddefinitions $end
#0
$dumpvars
bx ?"
bx >"
bx ="
bx <"
b0 ;"
b0 :"
b0 9"
b100 8"
b100 7"
bx 6"
b100 5"
b0 4"
b0 3"
b0 2"
bx 1"
b0 0"
b0 /"
bx ."
bx -"
bx ,"
bx +"
bx *"
bx )"
b0 ("
b0 '"
bx &"
bx %"
b0 $"
b0 #"
0""
b0 !"
b0 ~
b0 }
bx |
b0 {
b111100000000001100010011 z
bx y
bx x
bx w
bx v
0u
bx t
bx s
bx r
bx q
0p
b0 o
b111100000000001100010011 n
bx m
b0 l
bx k
bx j
b0 i
b0 h
b0 g
0f
bx e
bx d
bx c
bx b
bx a
bx `
bx _
bx ^
bx ]
0\
1[
bx Z
bx Y
b0 X
b0 W
b0 V
b0 U
b0 T
b0 S
0R
b0 Q
0P
b0 O
0N
bx M
bx L
bx K
0J
0I
0H
b0 G
0F
bx E
0D
0C
bx B
bx A
b0 @
0?
0>
0=
0<
0;
0:
bx 9
08
bx 7
bx 6
bx 5
bx0 4
b0 3
b100 2
b100 1
b101 0
bx /
0.
b0 -
bx ,
b101 +
bx *
bx )
b0 (
b11 '
b100000 &
b0 %
b0 $
0#
1"
1!
$end
#12
1#
0"
#25
0!
#50
1u
x.
1?
1:
b0 9
b0 ]
b0 a
b0 t
b0 ?"
b0 `
b0 s
b0 >"
b1111 _
b1111 y
b1111 x
bx ("
bx 0"
bx 4"
bx ;"
b10011 7
b0 <"
b1111 ="
b0 Z
b1111 Y
b0 ^
b0 c
b1111 b
b110 d
b1111000000000011000100110 5
b1111000000000011000100110 6"
b1111000000000011000100110 4
b10011 w
b11000000010001000100011 n
b11000000010001000100011 z
b1000 7"
b1000 8"
bx !"
bx 2"
bx G
bx X
bx g
bx T
bx i
bx U
bx h
bx -
bx l
b111100000000001100010011 r
b111100000000001100010011 v
b0 6
b0 q
b1000 2
b1000 5"
b100 3
b100 o
b100 {
b100 9"
b1 $
1!
#75
0!
#100
1=
0?
b100 _
b100 y
b100 x
0.
b1111 ,
b1111 E
b100011 7
b110 ="
b110 Y
b10 ^
b110 b
b100 d
b110000000100010001000110 4
b100011 w
b0 K
b0 +"
b0 1"
b0 *
b0 )"
b1111 )
b1111 ,"
b101 +
b101 0
b101010111100000011 n
b101010111100000011 z
b1100 7"
b1100 8"
b11000000010001000100011 r
b11000000010001000100011 v
b110000000100010001001010 5
b110000000100010001001010 6"
b100 6
b100 q
b110 G
b110 X
b110 g
b1111 T
b1111 i
b0 U
b0 h
b0 -
b0 l
b1111 m
b1111 *"
b0 k
b0 -"
b0 j
b0 %"
1F
1f
b0 /
b0 e
bx O
bx Q
bx }
b1100 2
b1100 5"
b1000 3
b1000 o
b1000 {
b1000 9"
b10 $
1!
#125
0!
#150
b0 _
b0 y
b0 x
b100 ,
b100 E
0=
1<
1>
1?
b1111 K
b1111 +"
b1111 1"
b10 W
b10 /"
b100 )
b100 ,"
b11 7
b101 <"
b0 ="
b101 Z
b0 Y
b101 c
b0 b
b11110 d
b1010101111000000110 4
b11 w
b11111000110000001010110011 n
b11111000110000001010110011 z
b10000 7"
b10000 8"
bx S
bx #"
bx :"
b110 O
b110 Q
b110 }
b0 A
b0 M
b1111 B
b1111 L
b1111 |
b1111 &"
b1111 ."
1P
b100 G
b100 X
b100 g
b110 T
b110 i
b10 -
b10 l
b100 m
b100 *"
1I
0F
b101010111100000011 r
b101010111100000011 v
b1010101111000001110 5
b1010101111000001110 6"
b1000 6
b1000 q
b10000 2
b10000 5"
b1100 3
b1100 o
b1100 {
b1100 9"
b11 $
1!
#175
0!
#200
0?
0u
18
1\
0[
b1111 a
b1111 t
b1111 ?"
b10000010010 _
b10000010010 y
b10000010010 x
0<
0>
0:
b0 9
b0 ]
b0 ,
b0 E
b110011 7
b110 <"
b11110 ="
b110 Z
b11110 Y
b1000 ^
b110 c
b11110 b
b101 d
b111110001100000010101100110 4
b110011 w
b0 )
b0 ,"
b0 K
b0 +"
b0 1"
b1111 ("
b1111 0"
b1111 4"
b1111 ;"
b0 W
b0 /"
b101100001110110011 n
b101100001110110011 z
b10100 7"
b10100 8"
b11111000110000001010110011 r
b11111000110000001010110011 v
b111110001100000010101110010 5
b111110001100000010101110010 6"
b1100 6
b1100 q
b11110 G
b11110 X
b11110 g
b0 T
b0 i
b101 U
b101 h
b0 m
b0 *"
0I
1J
1H
1F
b100 O
b100 Q
b100 }
b1111 A
b1111 M
b100 B
b100 L
b100 |
b100 &"
b100 ."
1C
0P
b110 S
b110 #"
b110 :"
b1111 !"
b1111 2"
1R
b10100 2
b10100 5"
b10000 3
b10000 o
b10000 {
b10000 9"
b100 $
1!
#225
0!
#250
1?
b10 9
b10 ]
08
0\
1[
b1111 ,
b1111 E
b100 ("
b100 0"
b100 4"
b100 ;"
b101 @
b101 ~
b10 W
b10 /"
b1111 *
b1111 )"
b100 S
b100 #"
b100 :"
b100 !"
b100 2"
0R
b11110 O
b11110 Q
b11110 }
b0 A
b0 M
b0 B
b0 L
b0 |
b0 &"
b0 ."
0C
1D
1N
1P
b101 G
b101 X
b101 g
b11110 T
b11110 i
b110 U
b110 h
b1000 -
b1000 l
b10000010010 m
b10000010010 *"
b1111 j
b1111 %"
0J
0H
0F
0f
b111110001100000010101100110 5
b111110001100000010101100110 6"
b0 6
b0 q
b101 $
b1 (
1!
#275
0!
#300
1u
b10000000011 _
b10000000011 y
b10000000011 x
b0 a
b0 t
b0 ?"
b1001011 ,
b1001011 E
b101 )
b101 ,"
b0 `
b0 s
b0 >"
b101 <"
b0 ="
b101 Z
b0 Y
b100 ^
b101 c
b0 b
b111 d
b1011000011101100110 4
b111 +
b111 0
b101 K
b101 +"
b101 1"
b0 @
b0 ~
b101 ("
b101 0"
b101 4"
b101 ;"
b1 W
b1 /"
b11100000010010000100011 n
b11100000010010000100011 z
b11000 7"
b11000 8"
b101100001110110011 r
b101100001110110011 v
b1011000011101110110 5
b1011000011101110110 6"
b10000 6
b10000 q
1F
b10 /
b10 e
b101 O
b101 Q
b101 }
b1111 B
b1111 L
b1111 |
b1111 &"
b1111 ."
0D
0N
0P
b11110 S
b11110 #"
b11110 :"
b101 $"
b101 3"
b0 !"
b0 2"
1""
1R
b11000 2
b11000 5"
b10100 3
b10100 o
b10100 {
b10100 9"
b110 $
1!
#325
0!
#350
b1000 _
b1000 y
b1000 x
b0 )
b0 ,"
b1001011 ,
b1001011 E
1=
0?
1:
b0 9
b0 ]
b1111 ("
b1111 0"
b1111 4"
b1111 ;"
b0 K
b0 +"
b0 1"
b10 V
b10 '"
b0 W
b0 /"
b1 +
b1 0
b1001011 *
b1001011 )"
b100011 7
b0 <"
b111 ="
b0 Z
b111 Y
b10 ^
b0 c
b111 b
b1000 d
b111000000100100001000110 4
b100011 w
b11000110000001100110011 n
b11000110000001100110011 z
b11100 7"
b11100 8"
b101 S
b101 #"
b101 :"
b0 $"
b0 3"
b1111 !"
b1111 2"
0""
0R
b101 A
b101 M
b1001011 B
b1001011 L
b1001011 |
b1001011 &"
b1001011 ."
1P
b111 G
b111 X
b111 g
b0 T
b0 i
b101 U
b101 h
b100 -
b100 l
b10000000011 m
b10000000011 *"
b0 j
b0 %"
b11100000010010000100011 r
b11100000010010000100011 v
b111000000100100001011010 5
b111000000100100001011010 6"
b10100 6
b10100 q
b11100 2
b11100 5"
b11000 3
b11000 o
b11000 {
b11000 9"
b111 $
1!
#375
0!
#400
b11 _
b11 y
b11 x
0=
1?
0:
b10 9
b10 ]
b1111 a
b1111 t
b1111 ?"
b1111 `
b1111 s
b1111 >"
b1000 ,
b1000 E
b1001011 K
b1001011 +"
b1001011 1"
b0 *
b0 )"
b110011 7
b110 <"
b110 ="
b110 Z
b110 Y
b0 ^
b110 c
b110 b
b110 d
b110001100000011001100110 4
b110011 w
b1000 )
b1000 ,"
b101 +
b101 0
b1001011 ("
b1001011 0"
b1001011 4"
b1001011 ;"
b10 W
b10 /"
b0 V
b0 '"
b100000 7"
b100000 8"
b11000110000001100110011 r
b11000110000001100110011 v
b110001100000011001111110 5
b110001100000011001111110 6"
b11000 6
b11000 q
b1000 G
b1000 X
b1000 g
b111 T
b111 i
b0 U
b0 h
b10 -
b10 l
b1000 m
b1000 *"
1I
0F
1f
b0 /
b0 e
b111 O
b111 Q
b111 }
b0 A
b0 M
b1001011 !"
b1001011 2"
1R
b100000 2
b100000 5"
b11100 3
b11100 o
b11100 {
b11100 9"
b1000 $
1!
#425
0!
#450
b11110 ,
b11110 E
b0 W
b0 /"
b1111 K
b1111 +"
b1111 1"
b1111 *
b1111 )"
b1111 )
b1111 ,"
b10 +
b10 0
b100000000010111010000011 n
b100000000010111010000011 z
b100100 7"
b100100 8"
b111 S
b111 #"
b111 :"
b1000 O
b1000 Q
b1000 }
b1001011 A
b1001011 M
b1000 B
b1000 L
b1000 |
b1000 &"
b1000 ."
1C
0P
b110 G
b110 X
b110 g
b110 T
b110 i
b110 U
b110 h
b0 -
b0 l
b11 m
b11 *"
b1111 k
b1111 -"
b1111 j
b1111 %"
0I
1F
0f
b10 /
b10 e
b110001100000011010000010 5
b110001100000011010000010 6"
b11100 6
b11100 q
b100100 2
b100100 5"
b100000 3
b100000 o
b100000 {
b100000 9"
b1001 $
1!
#475
0!
#500
b1000 _
b1000 y
b1000 x
1<
1>
1:
b0 9
b0 ]
b0 a
b0 t
b0 ?"
b0 `
b0 s
b0 >"
b111100 ,
b111100 E
b11110 )
b11110 ,"
b11 7
b0 <"
b1000 ="
b0 Z
b1000 Y
b10 ^
b0 c
b1000 b
b11101 d
b1000000000101110100000110 4
b11 w
b11110 *
b11110 )"
b11110 K
b11110 +"
b11110 1"
b1000 ("
b1000 0"
b1000 4"
b1000 ;"
b10 W
b10 /"
b10 V
b10 '"
b1110100110111111000110011 n
b1110100110111111000110011 z
b101000 7"
b101000 8"
b100000000010111010000011 r
b100000000010111010000011 v
b1000000000101110100100110 5
b1000000000101110100100110 6"
b100000 6
b100000 q
b110 O
b110 Q
b110 }
b1111 A
b1111 M
b11110 B
b11110 L
b11110 |
b11110 &"
b11110 ."
0C
1P
b1000 S
b1000 #"
b1000 :"
b1000 !"
b1000 2"
0R
b101000 2
b101000 5"
b100100 3
b100100 o
b100100 {
b100100 9"
b1010 $
1!
#525
0!
#550
0?
0u
18
1\
0[
b1110 _
b1110 y
b1110 x
b1000 ,
b1000 E
0<
0>
0:
b0 9
b0 ]
b11110 a
b11110 t
b11110 ?"
b11110 ("
b11110 0"
b11110 4"
b11110 ;"
b0 W
b0 /"
b0 V
b0 '"
b0 K
b0 +"
b0 1"
b0 *
b0 )"
b1000 )
b1000 ,"
b101 +
b101 0
b110011 7
b110 <"
b11101 ="
b110 Z
b11101 Y
b111 ^
b110 c
b11101 b
b11100 d
b11101001101111110001100110 4
b110011 w
b11111111000000110000001110010011 n
b11111111000000110000001110010011 z
b101100 7"
b101100 8"
b110 S
b110 #"
b110 :"
b11110 !"
b11110 2"
1R
b11110 A
b11110 M
b111100 B
b111100 L
b111100 |
b111100 &"
b111100 ."
b11101 G
b11101 X
b11101 g
b1000 T
b1000 i
b0 U
b0 h
b10 -
b10 l
b1000 m
b1000 *"
b0 k
b0 -"
b0 j
b0 %"
1J
1H
1f
b0 /
b0 e
b1110100110111111000110011 r
b1110100110111111000110011 v
b11101001101111110010001010 5
b11101001101111110010001010 6"
b100100 6
b100100 q
b101100 2
b101100 5"
b101000 3
b101000 o
b101000 {
b101000 9"
b1011 $
1!
#575
0!
#600
1?
b10 9
b10 ]
08
0\
1[
b10 +
b10 0
1.
b1000 K
b1000 +"
b1000 1"
b1001011 @
b1001011 ~
b1000100 ,
b1000100 E
b111100 a
b111100 t
b111100 ?"
b1000 )
b1000 ,"
b1 V
b1 '"
b10 W
b10 /"
b111100 *
b111100 )"
b111100 ("
b111100 0"
b111100 4"
b111100 ;"
b11101001101111110001100110 5
b11101001101111110001100110 6"
b0 6
b0 q
b11100 G
b11100 X
b11100 g
b11101 T
b11101 i
b110 U
b110 h
b111 -
b111 l
b1110 m
b1110 *"
b11110 j
b11110 %"
0J
0H
0F
0f
b11101 O
b11101 Q
b11101 }
b0 A
b0 M
b1000 B
b1000 L
b1000 |
b1000 &"
b1000 ."
1D
1N
b111100 !"
b111100 2"
b1100 $
b10 (
1!
#625
0!
#650
b1001011 )
b1001011 ,"
b1000 ,
b1000 E
1:
b0 9
b0 ]
b11111111111111111111111111110000 _
b11111111111111111111111111110000 y
b111111110000 x
b1001011 ("
b1001011 0"
b1001011 4"
b1001011 ;"
b1001011 K
b1001011 +"
b1001011 1"
b0 @
b0 ~
b1 W
b1 /"
b0 V
b0 '"
b0 +
b0 0
b10011 7
b10000 ="
b10000 Y
b1111111000 ^
b10000 b
b111 d
b11111110000001100000011100100110 4
b10011 w
b1000000000111000010011 n
b1000000000111000010011 z
b110000 7"
b110000 8"
b11101 S
b11101 #"
b11101 :"
b1001011 $"
b1001011 3"
b1000 !"
b1000 2"
1""
b11100 O
b11100 Q
b11100 }
b1000 A
b1000 M
b1000100 B
b1000100 L
b1000100 |
b1000100 &"
b1000100 ."
0D
0N
0P
b111100 j
b111100 %"
1F
b10 /
b10 e
b11111111000000110000001110010011 r
b11111111000000110000001110010011 v
b11111110000001100000011101001110 5
b11111110000001100000011101001110 6"
b101000 6
b101000 q
b110000 2
b110000 5"
b101100 3
b101100 o
b101100 {
b101100 9"
b1101 $
1!
#675
0!
#700
1u
b0 a
b0 t
b0 ?"
b10 _
b10 y
b10 x
0.
b101100 ,
b101100 E
b0 <"
b10 ="
b0 Z
b10 Y
b0 ^
b0 c
b10 b
b11100 d
b10000000001110000100110 4
b11111111111111111111111111110000 )
b11111111111111111111111111110000 ,"
b101 +
b101 0
b0 K
b0 +"
b0 1"
b1000100 ("
b1000100 0"
b1000100 4"
b1000100 ;"
b0 W
b0 /"
b110000000010111100000011 n
b110000000010111100000011 z
b110100 7"
b110100 8"
b1000000000111000010011 r
b1000000000111000010011 v
b10000000001110001010010 5
b10000000001110001010010 6"
b101100 6
b101100 q
b111 G
b111 X
b111 g
b10000 T
b10000 i
b1111111000 -
b1111111000 l
b11111111111111111111111111110000 m
b11111111111111111111111111110000 *"
1f
b0 /
b0 e
b1001011 A
b1001011 M
b1000 B
b1000 L
b1000 |
b1000 &"
b1000 ."
1P
b11100 S
b11100 #"
b11100 :"
b0 $"
b0 3"
b1000100 !"
b1000100 2"
0""
0R
b110100 2
b110100 5"
b110000 3
b110000 o
b110000 {
b110000 9"
b1110 $
1!
#725
0!
#750
b10 ,
b10 E
1<
1>
b1100 _
b1100 y
b1100 x
b1000 ("
b1000 0"
b1000 4"
b1000 ;"
b10 )
b10 ,"
b0 *
b0 )"
b11 7
b1100 ="
b1100 Y
b10 ^
b1100 b
b11110 d
b1100000000101111000000110 4
b11 w
b1111000101100001110110011 n
b1111000101100001110110011 z
b111000 7"
b111000 8"
b1000 !"
b1000 2"
1R
b111 O
b111 Q
b111 }
b0 A
b0 M
b101100 B
b101100 L
b101100 |
b101100 &"
b101100 ."
b11100 G
b11100 X
b11100 g
b10 T
b10 i
b0 U
b0 h
b0 -
b0 l
b10 m
b10 *"
b0 j
b0 %"
b110000000010111100000011 r
b110000000010111100000011 v
b1100000000101111000110110 5
b1100000000101111000110110 6"
b110000 6
b110000 q
b111000 2
b111000 5"
b110100 3
b110100 o
b110100 {
b110100 9"
b1111 $
1!
#775
0!
#800
0?
0u
18
1\
0[
b10000000011 _
b10000000011 y
b10000000011 x
0<
0>
0:
b0 9
b0 ]
b1001011 a
b1001011 t
b1001011 ?"
b101 `
b101 s
b101 >"
b1100 ,
b1100 E
b110011 7
b101 <"
b11110 ="
b101 Z
b11110 Y
b100 ^
b101 c
b11110 b
b111 d
b11110001011000011101100110 4
b110011 w
b1100 )
b1100 ,"
b101100 ("
b101100 0"
b101100 4"
b101100 ;"
b11100101000111110110011 n
b11100101000111110110011 z
b111100 7"
b111100 8"
b1111000101100001110110011 r
b1111000101100001110110011 v
b11110001011000011110011010 5
b11110001011000011110011010 6"
b110100 6
b110100 q
b11110 G
b11110 X
b11110 g
b1100 T
b1100 i
b10 -
b10 l
b1100 m
b1100 *"
1J
1H
b11100 O
b11100 Q
b11100 }
b10 B
b10 L
b10 |
b10 &"
b10 ."
b111 S
b111 #"
b111 :"
b101100 !"
b101100 2"
b111100 2
b111100 5"
b111000 3
b111000 o
b111000 {
b111000 9"
b10000 $
1!
#825
0!
#850
1?
b10 9
b10 ]
08
0\
1[
b1010111 ,
b1010111 E
b10 ("
b10 0"
b10 4"
b10 ;"
b0 @
b0 ~
b10 W
b10 /"
b1100 K
b1100 +"
b1100 1"
b1001011 *
b1001011 )"
b1100 )
b1100 ,"
b11100 S
b11100 #"
b11100 :"
b10 !"
b10 2"
b11110 O
b11110 Q
b11110 }
b1100 B
b1100 L
b1100 |
b1100 &"
b1100 ."
1D
1N
b111 G
b111 X
b111 g
b11110 T
b11110 i
b101 U
b101 h
b100 -
b100 l
b10000000011 m
b10000000011 *"
b101 k
b101 -"
b1001011 j
b1001011 %"
0J
0H
0F
0f
b11110001011000011101100110 5
b11110001011000011101100110 6"
b0 6
b0 q
b10001 $
b11 (
1!
#875
0!
#900
b10000001111 _
b10000001111 y
b10000001111 x
b1001011 ,
b1001011 E
b0 )
b0 ,"
b101100 `
b101100 s
b101100 >"
b111 ="
b111 Y
b0 ^
b111 b
b11111 d
b111001010001111101100110 4
b1 +
b1 0
b0 K
b0 +"
b0 1"
b1 W
b1 /"
b0 ("
b0 0"
b0 4"
b0 ;"
b0 n
b0 z
b1000000 7"
b1000000 8"
b11100101000111110110011 r
b11100101000111110110011 v
b111001010001111110011110 5
b111001010001111110011110 6"
b111000 6
b111000 q
1F
b10 /
b10 e
b111 O
b111 Q
b111 }
b1100 A
b1100 M
b1010111 B
b1010111 L
b1010111 |
b1010111 &"
b1010111 ."
0D
0N
0P
b11110 S
b11110 #"
b11110 :"
b1100 !"
b1100 2"
1""
b1000000 2
b1000000 5"
b111100 3
b111100 o
b111100 {
b111100 9"
b10010 $
1!
#925
0!
#950
1u
b10010110 ,
b10010110 E
b0 _
b0 y
b0 x
b1001011 )
b1001011 ,"
b1001011 K
b1001011 +"
b1001011 1"
0?
b0 a
b0 t
b0 ?"
b0 `
b0 s
b0 >"
b1010111 ("
b1010111 0"
b1010111 4"
b1010111 ;"
b10 W
b10 /"
b10 +
b10 0
b0 7
b0 <"
b0 ="
b0 Z
b0 Y
b0 c
b0 b
b0 d
b0 4
b0 w
b1000100 7"
b1000100 8"
b111 S
b111 #"
b111 :"
b1010111 !"
b1010111 2"
0""
0R
b0 A
b0 M
b1001011 B
b1001011 L
b1001011 |
b1001011 &"
b1001011 ."
1P
b11111 G
b11111 X
b11111 g
b111 T
b111 i
b0 -
b0 l
b10000001111 m
b10000001111 *"
b101100 k
b101100 -"
b0 r
b0 v
b111100 5
b111100 6"
b111100 6
b111100 q
b1000100 2
b1000100 5"
b1000000 3
b1000000 o
b1000000 {
b1000000 9"
b10011 $
1!
#975
0!
#1000
b0 ,
b0 E
b0 )
b0 ,"
b0 *
b0 )"
b0 K
b0 +"
b0 1"
b1001011 ("
b1001011 0"
b1001011 4"
b1001011 ;"
b0 W
b0 /"
b1001000 7"
b1001000 8"
b1000000 5
b1000000 6"
b1000000 6
b1000000 q
b0 G
b0 X
b0 g
b0 T
b0 i
b0 U
b0 h
b0 m
b0 *"
b0 k
b0 -"
b0 j
b0 %"
0F
b11111 O
b11111 Q
b11111 }
b1001011 A
b1001011 M
b10010110 B
b10010110 L
b10010110 |
b10010110 &"
b10010110 ."
b1001011 !"
b1001011 2"
1R
b1001000 2
b1001000 5"
b1000100 3
b1000100 o
b1000100 {
b1000100 9"
b10100 $
1!
#1025
0!
#1050
b10010110 ("
b10010110 0"
b10010110 4"
b10010110 ;"
b1001100 7"
b1001100 8"
b11111 S
b11111 #"
b11111 :"
b10010110 !"
b10010110 2"
b0 O
b0 Q
b0 }
b0 A
b0 M
b0 B
b0 L
b0 |
b0 &"
b0 ."
0P
b1000100 5
b1000100 6"
b1000100 6
b1000100 q
b1001100 2
b1001100 5"
b1001000 3
b1001000 o
b1001000 {
b1001000 9"
b10101 $
1!
#1075
0!
#1100
b0 ("
b0 0"
b0 4"
b0 ;"
b1010000 7"
b1010000 8"
b1001000 5
b1001000 6"
b1001000 6
b1001000 q
b0 S
b0 #"
b0 :"
b0 !"
b0 2"
0R
b1010000 2
b1010000 5"
b1001100 3
b1001100 o
b1001100 {
b1001100 9"
b10110 $
1!
#1125
0!
#1150
b1010100 7"
b1010100 8"
b1001100 5
b1001100 6"
b1001100 6
b1001100 q
b1010100 2
b1010100 5"
b1010000 3
b1010000 o
b1010000 {
b1010000 9"
b10111 $
1!
#1175
0!
#1200
b1011000 7"
b1011000 8"
b1010000 5
b1010000 6"
b1010000 6
b1010000 q
b1011000 2
b1011000 5"
b1010100 3
b1010100 o
b1010100 {
b1010100 9"
b11000 $
1!
#1225
0!
#1250
b1011100 7"
b1011100 8"
b1010100 5
b1010100 6"
b1010100 6
b1010100 q
b1011100 2
b1011100 5"
b1011000 3
b1011000 o
b1011000 {
b1011000 9"
b11001 $
1!
#1275
0!
#1300
b1100000 7"
b1100000 8"
b1011000 5
b1011000 6"
b1011000 6
b1011000 q
b1100000 2
b1100000 5"
b1011100 3
b1011100 o
b1011100 {
b1011100 9"
b11010 $
1!
#1325
0!
#1350
b1100100 7"
b1100100 8"
b1011100 5
b1011100 6"
b1011100 6
b1011100 q
b1100100 2
b1100100 5"
b1100000 3
b1100000 o
b1100000 {
b1100000 9"
b11011 $
1!
#1375
0!
#1400
b1101000 7"
b1101000 8"
b1100000 5
b1100000 6"
b1100000 6
b1100000 q
b1101000 2
b1101000 5"
b1100100 3
b1100100 o
b1100100 {
b1100100 9"
b11100 $
1!
#1425
0!
#1450
b1101100 7"
b1101100 8"
b1100100 5
b1100100 6"
b1100100 6
b1100100 q
b1101100 2
b1101100 5"
b1101000 3
b1101000 o
b1101000 {
b1101000 9"
b11101 $
1!
#1475
0!
#1500
b1110000 7"
b1110000 8"
b1101000 5
b1101000 6"
b1101000 6
b1101000 q
b1110000 2
b1110000 5"
b1101100 3
b1101100 o
b1101100 {
b1101100 9"
b11110 $
1!
#1525
0!
